<?xml version="1.0" encoding="UTF-8"?>
<!-- Created with Inkscape (http://www.inkscape.org/) -->
<svg id="svg2" width="97.904" height="70.471" version="1.1" viewBox="0 0 97.904 70.471" xml:space="preserve" xmlns="http://www.w3.org/2000/svg"><g id="g10" transform="matrix(1.3333 0 0 -1.3333 -194.83 139.71)"><path id="path106991-2-9-2" d="m171.7 68.346-23.16-14.622" fill="none" stroke="#120458" stroke-width=".89009"/><path id="path97820" d="m164.95 73.443 19.841-12.313 19.84 12.313-19.84 12.313zm19.841-13.486-21.729 13.486 21.729 13.485 21.728-13.485-21.728-13.486" fill="#120458" stroke="#120458" stroke-width=".096678"/><path id="path106991-2-9" d="m216.57 94.528-22.801-15.316" fill="none" stroke="#120458" stroke-width=".89009"/><path id="path97822" d="m199.09 77.878-14.295-8.8706v17.742l14.295 8.8706v-17.742" fill="#120458"/><path id="path97824" d="m184.79 86.75-14.295 8.8706 14.295 8.8716 14.295-8.8716-14.295-8.8706" fill="#d9effb"/><path id="path97826" d="m184.79 69.008-14.295 8.8706v17.742l14.295-8.8706v-17.742" fill="#829dc7"/><path id="path73564-6-0-2-2" d="m218.11 92.943c-1.2262-0.76077-3.2143-0.76077-4.4405 0-1.2272 0.76077-1.2272 1.9956 0 2.7556 1.2262 0.76157 3.2143 0.76157 4.4405 0 1.2272-0.75997 1.2272-1.9948 0-2.7556" fill="#120458"/><path id="path73564-6-0-2-2-8" d="m174.13 67.028c-1.2262-0.76077-3.2143-0.76077-4.4405 0-1.2272 0.76077-1.2272 1.9956 0 2.7556 1.2262 0.76157 3.2143 0.76157 4.4405 0 1.2272-0.75996 1.2272-1.9948 0-2.7556" fill="#120458"/><path id="path73564-6-0-2-2-3" d="m151.82 52.842c-1.2262-0.76076-3.2143-0.76076-4.4405 0-1.2272 0.76077-1.2272 1.9956 0 2.7556 1.2262 0.76157 3.2143 0.76157 4.4405 0 1.2272-0.75996 1.2272-1.9948 0-2.7556" fill="#120458" stroke="#120458" stroke-width=".096678"/><path id="path125" d="m175.11 82.691a0.72362 1.4402 35.33 0 0-1.0209 1.7375 0.72362 1.4402 35.33 0 0 1.0209 0.30424 0.72362 1.4402 35.33 0 0 1.0209-1.7375 0.72362 1.4402 35.33 0 0-1.0209-0.30426m2.884 0.01731c-0.41857 1.4832-1.5518 3.1311-2.884 4.0663a2.1709 4.3208 35.33 0 1-3.0627-0.91278 2.1709 4.3208 35.33 0 1 3.0627-5.2126c1.3323-0.93521 2.4655-0.87823 2.884 0.01731l2.2205-1.5587v-2.0418l2.0418-1.4333v2.0418l1.0209-0.71662v2.0418z" fill="#1afe49" stroke-width=".51045"/></g></svg>
