<?xml version="1.0" encoding="UTF-8"?>
<!-- Created with Inkscape (http://www.inkscape.org/) -->
<svg id="svg2" width="97.904" height="70.471" version="1.1" viewBox="0 0 97.904 70.471" xml:space="preserve" xmlns="http://www.w3.org/2000/svg"><g id="g10" transform="matrix(1.3333 0 0 -1.3333 -194.83 139.71)"><path id="path106991-2-9-2" d="m171.7 68.346-23.16-14.622" fill="none" stroke="#120458" stroke-width=".89009"/><path id="path97820" d="m164.95 73.443 19.841-12.313 19.84 12.313-19.84 12.313zm19.841-13.486-21.729 13.486 21.729 13.485 21.728-13.485-21.728-13.486" fill="#120458" stroke="#120458" stroke-width=".096678"/><path id="path106991-2-9" d="m216.57 94.528-22.801-15.316" fill="none" stroke="#120458" stroke-width=".89009"/><path id="path97822" d="m199.09 77.878-14.295-8.8706v17.742l14.295 8.8706v-17.742" fill="#120458"/><path id="path97824" d="m184.79 86.75-14.295 8.8706 14.295 8.8716 14.295-8.8716-14.295-8.8706" fill="#d9effb"/><path id="path97826" d="m184.79 69.008-14.295 8.8706v17.742l14.295-8.8706v-17.742" fill="#829dc7"/><path id="path73564-6-0-2-2" d="m218.11 92.943c-1.2262-0.76077-3.2143-0.76077-4.4405 0-1.2272 0.76077-1.2272 1.9956 0 2.7556 1.2262 0.76157 3.2143 0.76157 4.4405 0 1.2272-0.75997 1.2272-1.9948 0-2.7556" fill="#120458"/><path id="path73564-6-0-2-2-8" d="m174.13 67.028c-1.2262-0.76077-3.2143-0.76077-4.4405 0-1.2272 0.76077-1.2272 1.9956 0 2.7556 1.2262 0.76157 3.2143 0.76157 4.4405 0 1.2272-0.75996 1.2272-1.9948 0-2.7556" fill="#120458"/><path id="path73564-6-0-2-2-3" d="m151.82 52.842c-1.2262-0.76076-3.2143-0.76076-4.4405 0-1.2272 0.76077-1.2272 1.9956 0 2.7556 1.2262 0.76157 3.2143 0.76157 4.4405 0 1.2272-0.75996 1.2272-1.9948 0-2.7556" fill="#120458" stroke="#120458" stroke-width=".096678"/><g id="g4025" transform="matrix(.037568 -.024562 -.0079377 -.040802 182.54 86.551)" fill="#1afe49" fill-opacity=".98824" stroke="#1afe49" stroke-opacity=".98824" stroke-width="3.6808"><g id="g4146" transform="matrix(1.25 0 0 -1.25 -271.09 118.73)"><path id="path4148" d="m0 0-24.56 42.513 49.098 0.013z" fill="#1afe49" fill-opacity=".98824" stroke="#1afe49" stroke-opacity=".98824" stroke-width="3.6808"/></g><g id="g4150" transform="matrix(1.25 0 0 -1.25 -271.1 118.73)"><path id="path4152" d="M 0,0 24.549,42.52 49.098,0 Z" fill="#1afe49" fill-opacity=".98824" stroke="#1afe49" stroke-opacity=".98824" stroke-width="3.6808"/></g><g id="g4154" transform="matrix(1.25 0 0 -1.25 -240.4 171.88)"><path id="path4156" d="m0 0-24.56 42.513 49.098 0.013z" fill="#1afe49" fill-opacity=".98824" stroke="#1afe49" stroke-opacity=".98824" stroke-width="3.6808"/></g><g id="g4158" transform="matrix(1.25 0 0 -1.25 -240.42 171.88)"><path id="path4160" d="M 0,0 24.549,42.52 49.098,0 Z" fill="#1afe49" fill-opacity=".98824" stroke="#1afe49" stroke-opacity=".98824" stroke-width="3.6808"/></g><g id="g4162" transform="matrix(1.25 0 0 -1.25 -209.72 225.04)"><path id="path4164" d="m0 0-24.56 42.513 49.098 0.013z" fill="#1afe49" fill-opacity=".98824" stroke="#1afe49" stroke-opacity=".98824" stroke-width="3.6808"/></g><g id="g4166" transform="matrix(1.25 0 0 -1.25 -209.73 225.04)"><path id="path4168" d="M 0,0 24.549,42.52 49.098,0 Z" fill="#1afe49" fill-opacity=".98824" stroke="#1afe49" stroke-opacity=".98824" stroke-width="3.6808"/></g><g id="g4170" transform="matrix(1.25 0 0 -1.25 -179.03 278.2)"><path id="path4172" d="m0 0-24.56 42.513 49.098 0.013z" fill="#1afe49" fill-opacity=".98824" stroke="#1afe49" stroke-opacity=".98824" stroke-width="3.6808"/></g><g id="g4174" transform="matrix(1.25 0 0 -1.25 -179.04 278.19)"><path id="path4176" d="M 0,0 24.549,42.52 49.098,0 Z" fill="#1afe49" fill-opacity=".98824" stroke="#1afe49" stroke-opacity=".98824" stroke-width="3.6808"/></g><g id="g4178" transform="matrix(1.25 0 0 -1.25 -117.66 278.2)"><path id="path4180" d="m0 0-24.56 42.513 49.098 0.013z" fill="#1afe49" fill-opacity=".98824" stroke="#1afe49" stroke-opacity=".98824" stroke-width="3.6808"/></g><g id="g4182" transform="matrix(1.25 0 0 -1.25 -148.36 225.04)"><path id="path4184" d="M 0,0 24.549,42.52 49.098,0 Z" fill="#1afe49" fill-opacity=".98824" stroke="#1afe49" stroke-opacity=".98824" stroke-width="3.6808"/></g><g id="g4186" transform="matrix(1.25 0 0 -1.25 -86.97 225.03)"><path id="path4188" d="m0 0-24.56 42.513 49.098 0.013z" fill="#1afe49" fill-opacity=".98824" stroke="#1afe49" stroke-opacity=".98824" stroke-width="3.6808"/></g><g id="g4190" transform="matrix(1.25 0 0 -1.25 -117.67 171.87)"><path id="path4192" d="M 0,0 24.549,42.52 49.099,0 Z" fill="#1afe49" fill-opacity=".98824" stroke="#1afe49" stroke-opacity=".98824" stroke-width="3.6808"/></g><g id="g4194" transform="matrix(1.25 0 0 -1.25 -56.283 171.88)"><path id="path4196" d="m0 0-24.56 42.513 49.099 0.013z" fill="#1afe49" fill-opacity=".98824" stroke="#1afe49" stroke-opacity=".98824" stroke-width="3.6808"/></g><g id="g4198" transform="matrix(1.25 0 0 -1.25 -86.984 118.72)"><path id="path4200" d="M 0,0 24.549,42.52 49.098,0 Z" fill="#1afe49" fill-opacity=".98824" stroke="#1afe49" stroke-opacity=".98824" stroke-width="3.6808"/></g><g id="g4202" transform="matrix(1.25 0 0 -1.25 -86.848 224.98)"><path id="path4204" d="m0 0-24.561 42.513 49.099 0.013z" fill="#1afe49" fill-opacity=".98824" stroke="#1afe49" stroke-opacity=".98824" stroke-width="3.6808"/></g><g id="g4206" transform="matrix(1.25 0 0 -1.25 -117.55 171.82)"><path id="path4208" d="M 0,0 24.549,42.52 49.098,0 Z" fill="#1afe49" fill-opacity=".98824" stroke="#1afe49" stroke-opacity=".98824" stroke-width="3.6808"/></g><g id="g4210" transform="matrix(1.25 0 0 -1.25 -56.161 171.82)"><path id="path4212" d="m0 0-24.559 42.513 49.098 0.013z" fill="#1afe49" fill-opacity=".98824" stroke="#1afe49" stroke-opacity=".98824" stroke-width="3.6808"/></g><g id="g4214" transform="matrix(1.25 0 0 -1.25 -86.863 118.66)"><path id="path4216" d="M 0,0 24.549,42.52 49.098,0 Z" fill="#1afe49" fill-opacity=".98824" stroke="#1afe49" stroke-opacity=".98824" stroke-width="3.6808"/></g><g id="g4218" transform="matrix(1.25 0 0 -1.25 -25.473 118.67)"><path id="path4220" d="m0 0-24.561 42.513 49.098 0.013z" fill="#1afe49" fill-opacity=".98824" stroke="#1afe49" stroke-opacity=".98824" stroke-width="3.6808"/></g><g id="g4222" transform="matrix(1.25 0 0 -1.25 -25.712 118.73)"><path id="path4224" d="M 0,0 24.549,42.52 49.1,0 Z" fill="#1afe49" fill-opacity=".98824" stroke="#1afe49" stroke-opacity=".98824" stroke-width="3.6808"/></g><g id="g4226" transform="matrix(1.25 0 0 -1.25 35.655 118.67)"><path id="path4228" d="m0 0-24.543 42.522 49.098-6e-3z" fill="#1afe49" fill-opacity=".98824" stroke="#1afe49" stroke-opacity=".98824" stroke-width="3.6808"/></g><g id="g4230" transform="matrix(1.25 0 0 -1.25 -87.007 224.8)"><path id="path4232" d="m0 0 24.786 42.383 24.312-42.656z" fill="#1afe49" fill-opacity=".98824" stroke="#1afe49" stroke-opacity=".98824" stroke-width="3.6808"/></g><g id="g4234" transform="matrix(1.25 0 0 -1.25 -56.396 278.13)"><path id="path4236" d="M 0,0 24.549,42.52 49.1,0 Z" fill="#1afe49" fill-opacity=".98824" stroke="#1afe49" stroke-opacity=".98824" stroke-width="3.6808"/></g><g id="g4238" transform="matrix(1.25 0 0 -1.25 4.9911 278.13)"><path id="path4240" d="m0 0-24.559 42.513 49.098 0.013z" fill="#1afe49" fill-opacity=".98824" stroke="#1afe49" stroke-opacity=".98824" stroke-width="3.6808"/></g><g id="g4242" transform="matrix(1.25 0 0 -1.25 4.9763 278.12)"><path id="path4244" d="M 0,0 24.549,42.52 49.098,0 Z" fill="#1afe49" fill-opacity=".98824" stroke="#1afe49" stroke-opacity=".98824" stroke-width="3.6808"/></g><g id="g4246" transform="matrix(1.25 0 0 -1.25 -56.381 278.13)"><path id="path4248" d="m0 0-24.56 42.513 49.097 0.013z" fill="#1afe49" fill-opacity=".98824" stroke="#1afe49" stroke-opacity=".98824" stroke-width="3.6808"/></g></g></g></svg>
