<?xml version="1.0" encoding="UTF-8"?>
<!-- Created with Inkscape (http://www.inkscape.org/) -->
<svg id="svg2" width="97.904" height="70.471" version="1.1" viewBox="0 0 97.904 70.471" xml:space="preserve" xmlns="http://www.w3.org/2000/svg"><g id="g10" transform="matrix(1.3333 0 0 -1.3333 -194.83 139.71)"><path id="path106991-2-9-2" d="m171.7 68.346-23.16-14.622" fill="none" stroke="#120458" stroke-width=".89009"/><path id="path97820" d="m164.95 73.443 19.841-12.313 19.84 12.313-19.84 12.313zm19.841-13.486-21.729 13.486 21.729 13.485 21.728-13.485-21.728-13.486" fill="#120458" stroke="#120458" stroke-width=".096678"/><path id="path106991-2-9" d="m216.57 94.528-22.801-15.316" fill="none" stroke="#120458" stroke-width=".89009"/><path id="path97822" d="m199.09 77.878-14.295-8.8706v17.742l14.295 8.8706v-17.742" fill="#120458"/><path id="path97824" d="m184.79 86.75-14.295 8.8706 14.295 8.8716 14.295-8.8716-14.295-8.8706" fill="#d9effb"/><path id="path97826" d="m184.79 69.008-14.295 8.8706v17.742l14.295-8.8706v-17.742" fill="#829dc7"/><path id="path73564-6-0-2-2" d="m218.11 92.943c-1.2262-0.76077-3.2143-0.76077-4.4405 0-1.2272 0.76077-1.2272 1.9956 0 2.7556 1.2262 0.76157 3.2143 0.76157 4.4405 0 1.2272-0.75997 1.2272-1.9948 0-2.7556" fill="#120458"/><path id="path73564-6-0-2-2-8" d="m174.13 67.028c-1.2262-0.76077-3.2143-0.76077-4.4405 0-1.2272 0.76077-1.2272 1.9956 0 2.7556 1.2262 0.76157 3.2143 0.76157 4.4405 0 1.2272-0.75996 1.2272-1.9948 0-2.7556" fill="#120458"/><path id="path73564-6-0-2-2-3" d="m151.82 52.842c-1.2262-0.76076-3.2143-0.76076-4.4405 0-1.2272 0.76077-1.2272 1.9956 0 2.7556 1.2262 0.76157 3.2143 0.76157 4.4405 0 1.2272-0.75996 1.2272-1.9948 0-2.7556" fill="#120458" stroke="#120458" stroke-width=".096678"/><g id="g135" transform="matrix(.9119 -.63754 -.00080652 -.91246 164.62 105.2)" fill="#1afe49"><flowRoot id="flowRoot131-3" font-family="Roboto" font-size="12.8px" letter-spacing="0px" stroke-width="1.0667px" word-spacing="0px" style="line-height:0.01%" xml:space="preserve"><flowRegion id="flowRegion127-6"><rect id="rect125-7" x="11.375" y="11.984" width="4.7893" height="5.388" fill="#1afe49" stroke-width="1.1378px"/></flowRegion><flowPara id="flowPara129-5" font-size="4px" style="line-height:1.25">your</flowPara></flowRoot><path id="path133" d="m14.414 8.2922c-0.30872-0.00834-0.61141 0.14866-0.77726 0.43593l-2.3479 4.0665-3.0047-0.0049c-0.50639-8.3e-4 -1.0061 0.6631-0.87825 1.1141l1.6724 5.8987c0.057716 0.20356 0.21307 0.40824 0.40517 0.53269 0.1025 0.07485 0.22906 0.11963 0.36692 0.11963h9.046c0.13786 0 0.26443-0.04478 0.36692-0.11963 0.1921-0.12445 0.34746-0.32913 0.40517-0.53269l1.6724-5.8987c0.12787-0.45101-0.37186-1.1149-0.87825-1.1141l-2.974 0.0049-1.9604-3.3955c-0.02477 0.080492-0.05796 0.15969-0.10194 0.23586l-0.88655 1.5356 0.9395 1.6273-1.1058 0.0017-1.075-0.0017 1.8469-3.1989c0.24127-0.41784 0.099124-0.9484-0.31872-1.1896-0.13057-0.075388-0.27219-0.11339-0.41252-0.11718zm0.01769 5.1757c0.14032 0.0038 0.28181 0.0418 0.41238 0.11718h2.72e-4c0.41782 0.24123 0.55984 0.77196 0.31861 1.1898l-1.79 3.1002h-1.683c-0.12833 0-0.25062 0.02313-0.36475 0.06356l2.3293-4.0348c0.16584-0.28725 0.46843-0.44426 0.77713-0.43593zm1.0778 1.0266 2.3281 4.0326c0.24123 0.41782 0.09921 0.94842-0.31861 1.1896h-2.72e-4c-0.41782 0.24123-0.94828 0.09908-1.1895-0.31874l-1.7888-3.0983 0.84178-1.4579c0.06406-0.11095 0.10517-0.22848 0.12725-0.34733zm-3.7901 3.5979h3.6051l0.83102 1.4397c0.06913 0.11974 0.15803 0.22026 0.25913 0.30214h-4.6953c-0.48246 0-0.8709-0.38831-0.8709-0.87076v-1.39e-4c0-0.48246 0.38844-0.8709 0.8709-0.8709z" opacity=".99"/></g></g></svg>
