<?xml version="1.0" encoding="UTF-8"?>
<!-- Created with Inkscape (http://www.inkscape.org/) -->
<svg id="svg2" width="97.904" height="70.471" version="1.1" viewBox="0 0 97.904 70.471" xml:space="preserve" xmlns="http://www.w3.org/2000/svg"><g id="g10" transform="matrix(1.3333 0 0 -1.3333 -194.83 139.71)"><path id="path106991-2-9-2" d="m171.7 68.346-23.16-14.622" fill="none" stroke="#120458" stroke-width=".89009"/><path id="path97820" d="m164.95 73.443 19.841-12.313 19.84 12.313-19.84 12.313zm19.841-13.486-21.729 13.486 21.729 13.485 21.728-13.485-21.728-13.486" fill="#120458" stroke="#120458" stroke-width=".096678"/><path id="path106991-2-9" d="m216.57 94.528-22.801-15.316" fill="none" stroke="#120458" stroke-width=".89009"/><path id="path97822" d="m199.09 77.878-14.295-8.8706v17.742l14.295 8.8706v-17.742" fill="#120458"/><path id="path97824" d="m184.79 86.75-14.295 8.8706 14.295 8.8716 14.295-8.8716-14.295-8.8706" fill="#d9effb"/><path id="path97826" d="m184.79 69.008-14.295 8.8706v17.742l14.295-8.8706v-17.742" fill="#829dc7"/><path id="path73564-6-0-2-2" d="m218.11 92.943c-1.2262-0.76077-3.2143-0.76077-4.4405 0-1.2272 0.76077-1.2272 1.9956 0 2.7556 1.2262 0.76157 3.2143 0.76157 4.4405 0 1.2272-0.75997 1.2272-1.9948 0-2.7556" fill="#120458"/><path id="path73564-6-0-2-2-8" d="m174.13 67.028c-1.2262-0.76077-3.2143-0.76077-4.4405 0-1.2272 0.76077-1.2272 1.9956 0 2.7556 1.2262 0.76157 3.2143 0.76157 4.4405 0 1.2272-0.75996 1.2272-1.9948 0-2.7556" fill="#120458"/><path id="path73564-6-0-2-2-3" d="m151.82 52.842c-1.2262-0.76076-3.2143-0.76076-4.4405 0-1.2272 0.76077-1.2272 1.9956 0 2.7556 1.2262 0.76157 3.2143 0.76157 4.4405 0 1.2272-0.75996 1.2272-1.9948 0-2.7556" fill="#120458" stroke="#120458" stroke-width=".096678"/><path id="path125" d="m176.78 76.603c-1.3659 1.8247-2.8408 4.2913-3.6483 6.1011-0.40071 0.89813-0.83469 2.1902-1.0313 3.0703-0.20707 0.9271-0.20708 3.2432-4e-5 4.3276 0.0801 0.42014 0.16839 0.79587 0.19591 0.83505 0.035 0.04972 0.18192-0.11534 0.48762-0.5478 0.53423-0.75574 0.87719-1.0457 1.6982-1.4356 0.65887-0.31299 1.2919-0.45537 2.393-0.53839 0.3528-0.02661 0.67073-0.06419 0.70646-0.08347 0.0357-0.01925 0.23189-0.20935 0.43588-0.42243 1.9888-2.0771 3.6982-3.103 4.4452-2.6677 0.36259 0.2113 0.40213 0.14397 0.59531-1.0136 0.2798-1.6767 0.27942-3.4225-9.8e-4 -4.4213-0.36282-1.2923-1.3912-2.5018-2.809-3.3037-0.96854-0.54778-2.403-1.0302-2.6516-0.89176-0.07 0.03904-0.43738 0.48522-0.81652 0.99173zm1.6909 0.93986 0.53037 0.21307-0.28251 0.40428c-0.36183 0.5178-5.0626 7.0615-5.3559 7.4557-0.2699 0.36274-0.27127 0.33308-0.0255-0.55218 0.48547-1.7492 1.3262-3.4191 3.0443-6.0469l1.1492-1.7576 0.20482 0.03533c0.11271 0.01941 0.44348 0.13122 0.73518 0.24841zm-2.0284 6.8891c-2.4008 2.8833-3.2647 3.8838-3.3116 3.8352-0.0349-0.03615-0.0639-0.38177-0.0646-0.76806l-1e-3 -0.70236 0.40213-0.37056c0.22118-0.20384 0.83298-0.78074 1.3596-1.2821 0.52659-0.50132 1.3193-1.2557 1.7617-1.6763 0.44235-0.42066 1.2868-1.2339 1.8766-1.8073 0.58978-0.57337 1.1068-1.0621 1.1489-1.086 0.0422-0.02416-1.3851 1.7119-3.1716 3.8574zm5.5896-3.3846c0.093 0.33448 0.1511 2.3013 0.0714 2.4141-0.0212 0.02977-0.29993 0.16102-0.61968 0.29158-0.81346 0.33223-1.8281 1.0592-2.9509 2.1143-0.92275 0.86707-1.0741 0.97703-1.2881 0.936-0.12583-0.02408 0.0659-0.29069 1.996-2.7765 2.7447-3.535 2.5867-3.3359 2.6444-3.3323 0.0273 0.0017 0.0935 0.1604 0.14702 0.35285z" fill="#1afe49" stroke-width=".98406"/></g></svg>
