<?xml version="1.0" encoding="UTF-8"?>
<!-- Created with Inkscape (http://www.inkscape.org/) -->
<svg id="svg2" width="97.904" height="70.471" version="1.1" viewBox="0 0 97.904 70.471" xml:space="preserve" xmlns="http://www.w3.org/2000/svg"><g id="g10" transform="matrix(1.3333 0 0 -1.3333 -194.83 139.71)"><path id="path106991-2-9-2" d="m171.7 68.346-23.16-14.622" fill="none" stroke="#120458" stroke-width=".89009"/><path id="path97820" d="m164.95 73.443 19.841-12.313 19.84 12.313-19.84 12.313zm19.841-13.486-21.729 13.486 21.729 13.485 21.728-13.485-21.728-13.486" fill="#120458" stroke="#120458" stroke-width=".096678"/><path id="path106991-2-9" d="m216.57 94.528-22.801-15.316" fill="none" stroke="#120458" stroke-width=".89009"/><path id="path97822" d="m199.09 77.878-14.295-8.8706v17.742l14.295 8.8706v-17.742" fill="#120458"/><path id="path97824" d="m184.79 86.75-14.295 8.8706 14.295 8.8716 14.295-8.8716-14.295-8.8706" fill="#d9effb"/><path id="path97826" d="m184.79 69.008-14.295 8.8706v17.742l14.295-8.8706v-17.742" fill="#829dc7"/><path id="path73564-6-0-2-2" d="m218.11 92.943c-1.2262-0.76077-3.2143-0.76077-4.4405 0-1.2272 0.76077-1.2272 1.9956 0 2.7556 1.2262 0.76157 3.2143 0.76157 4.4405 0 1.2272-0.75997 1.2272-1.9948 0-2.7556" fill="#120458"/><path id="path73564-6-0-2-2-8" d="m174.13 67.028c-1.2262-0.76077-3.2143-0.76077-4.4405 0-1.2272 0.76077-1.2272 1.9956 0 2.7556 1.2262 0.76157 3.2143 0.76157 4.4405 0 1.2272-0.75996 1.2272-1.9948 0-2.7556" fill="#120458"/><path id="path73564-6-0-2-2-3" d="m151.82 52.842c-1.2262-0.76076-3.2143-0.76076-4.4405 0-1.2272 0.76077-1.2272 1.9956 0 2.7556 1.2262 0.76157 3.2143 0.76157 4.4405 0 1.2272-0.75996 1.2272-1.9948 0-2.7556" fill="#120458" stroke="#120458" stroke-width=".096678"/><path id="path125" d="m177.77 87.9c-0.47455 0.27916-0.80191 0.43762-1.2294 0.59542-1.5641 0.57705-2.9088 0.39312-3.723-0.51008-0.4501-0.49926-0.70984-1.1934-0.77681-2.0784-0.0906-1.1955 0.26831-2.7187 0.98843-4.1966 0.45084-0.92524 1.0631-1.8704 1.7247-2.664 0.0764-0.09158 0.1421-0.16859 0.14635-0.17073 4e-3 -0.0026 0.051 0.04606 0.10353 0.10783 0.0525 0.06178 0.1553 0.18044 0.22853 0.26378 0.2156 0.24538 0.7728 0.88158 0.91416 1.0439 0.0505 0.05804 0.0912 0.11206 0.0912 0.11958 0 0.0075-0.0614 0.09075-0.13735 0.18568-0.18657 0.2334-0.27412 0.35639-0.44921 0.63075-0.17695 0.2773-0.28176 0.46326-0.40978 0.72909-0.68588 1.4242-0.68259 2.7688 8e-3 3.3907 0.15219 0.13712 0.40204 0.26212 0.62256 0.31179 0.29952 0.06747 0.73393 0.02835 1.1269-0.10043 0.29175-0.09563 0.4377-0.16352 0.77794-0.36413 0.34023-0.20061 0.48618-0.30484 0.77792-0.55324 0.39387-0.33542 0.8201-0.80002 1.1269-1.2285 0.11043-0.15426 0.36014-0.54821 0.45259-0.71492 0.27615-0.49801 0.49004-1.0496 0.59555-1.5333 0.0749-0.34344 0.0878-0.46016 0.0878-0.80379 0-0.34362-0.0129-0.44516-0.0878-0.70029-0.10549-0.3593-0.31939-0.6586-0.59555-0.83097-0.098-0.06117-0.34663-0.15904-0.46159-0.18266-0.0447-0.0092-0.14366-0.0216-0.21953-0.02699-0.0759-0.0054-0.13734-0.01647-0.13734-0.02372 0-0.01238 0.59582-1.4039 0.97721-2.2818 0.15281-0.35178 0.34578-0.80225 0.35012-0.81776 7e-3 -0.02499 0.0567-0.02631 0.30734-0.0067 0.37548 0.02942 0.55872 0.07238 0.88267 0.20345 0.49163 0.19897 0.85807 0.50079 1.1393 0.93697 0.38012 0.58954 0.54826 1.2426 0.54826 2.1366 0 0.60992-0.0739 1.1602-0.2443 1.8192-0.20908 0.80839-0.55931 1.6804-1.0008 2.4938-0.77854 1.4344-1.8559 2.7711-3.0464 3.7788-0.52454 0.444-0.9088 0.71786-1.459 1.0416zm0.0135-3.8525c-0.37273 0.21978-0.75255 0.32798-1.0695 0.30413-0.15899-0.01208-0.40202-0.11282-0.50773-0.20949-0.43314-0.39603-0.43314-1.2187 0-2.1255 0.10582-0.22163 0.34938-0.60883 0.50886-0.80891 0.0684-0.08567 0.19215-0.22805 0.27582-0.31687 0.0958-0.10154 0.14943-0.1658 0.14524-0.17458-3e-3 -0.0077-0.0417-0.20079-0.0856-0.428-0.0438-0.2272-0.10939-0.56412-0.14522-0.74859-0.0359-0.18444-0.0833-0.4306-0.10582-0.54778-0.0781-0.40661-0.15805-0.82226-0.23531-1.2201-0.0426-0.21997-0.0738-0.40693-0.0687-0.41547 4e-3 -0.0083 0.11215-0.10143 0.23866-0.20714 0.23323-0.1949 0.46378-0.36832 0.71152-0.53549 0.29967-0.20221 0.61676-0.37824 0.9704-0.53727 0.18272-0.08217 0.52487-0.2079 0.54376-0.20015 8e-3 0.0028-0.0136 0.1857-0.0518 0.44369-0.0358 0.24136-0.0895 0.60154-0.11821 0.80035-0.0287 0.19884-0.0637 0.44312-0.0788 0.54294-0.015 0.09983-0.0473 0.31557-0.071 0.47979-0.0236 0.16416-0.0794 0.54683-0.12384 0.84983-0.0445 0.30302-0.0948 0.65242-0.11262 0.77678l-0.0327 0.22641 0.044-0.01014c0.0991-0.02298 0.33212-0.03984 0.4368-0.03127 0.1418 0.01162 0.3934 0.1154 0.48748 0.20004 0.14423 0.12978 0.24946 0.32013 0.30847 0.55778 0.0249 0.10004 0.0249 0.54617 0 0.67549-0.059 0.30725-0.16424 0.6228-0.30847 0.92266-0.0931 0.19376-0.34528 0.59449-0.4841 0.76953-0.31841 0.40154-0.70679 0.75224-1.0718 0.96744z" fill="#1afe49" stroke-width=".86274"/></g></svg>
