<?xml version="1.0" encoding="UTF-8"?>
<!-- Created with Inkscape (http://www.inkscape.org/) -->
<svg id="svg2" width="97.904" height="70.471" version="1.1" viewBox="0 0 97.904 70.471" xml:space="preserve" xmlns="http://www.w3.org/2000/svg"><g id="g10" transform="matrix(1.3333 0 0 -1.3333 -194.83 139.71)"><path id="path106991-2-9-2" d="m171.7 68.346-23.16-14.622" fill="none" stroke="#120458" stroke-width=".89009"/><path id="path97820" d="m164.95 73.443 19.841-12.313 19.84 12.313-19.84 12.313zm19.841-13.486-21.729 13.486 21.729 13.485 21.728-13.485-21.728-13.486" fill="#120458" stroke="#120458" stroke-width=".096678"/><path id="path106991-2-9" d="m216.57 94.528-22.801-15.316" fill="none" stroke="#120458" stroke-width=".89009"/><path id="path97822" d="m199.09 77.878-14.295-8.8706v17.742l14.295 8.8706v-17.742" fill="#120458"/><path id="path97824" d="m184.79 86.75-14.295 8.8706 14.295 8.8716 14.295-8.8716-14.295-8.8706" fill="#d9effb"/><path id="path97826" d="m184.79 69.008-14.295 8.8706v17.742l14.295-8.8706v-17.742" fill="#829dc7"/><path id="path73564-6-0-2-2" d="m218.11 92.943c-1.2262-0.76077-3.2143-0.76077-4.4405 0-1.2272 0.76077-1.2272 1.9956 0 2.7556 1.2262 0.76157 3.2143 0.76157 4.4405 0 1.2272-0.75997 1.2272-1.9948 0-2.7556" fill="#120458"/><path id="path73564-6-0-2-2-8" d="m174.13 67.028c-1.2262-0.76077-3.2143-0.76077-4.4405 0-1.2272 0.76077-1.2272 1.9956 0 2.7556 1.2262 0.76157 3.2143 0.76157 4.4405 0 1.2272-0.75996 1.2272-1.9948 0-2.7556" fill="#120458"/><path id="path73564-6-0-2-2-3" d="m151.82 52.842c-1.2262-0.76076-3.2143-0.76076-4.4405 0-1.2272 0.76077-1.2272 1.9956 0 2.7556 1.2262 0.76157 3.2143 0.76157 4.4405 0 1.2272-0.75996 1.2272-1.9948 0-2.7556" fill="#120458" stroke="#120458" stroke-width=".096678"/><g id="g133" transform="matrix(.17063 -.106 0 -.17063 171.81 96.542)" fill="none" stroke="#1afe49" stroke-opacity=".97647"><path id="path125-8" d="m47.689 62.268h-27.861" stroke-width="6.3476"/><path id="path127" d="m12.128 29.795h43.262c5.9917 0 10.815 4.8237 10.815 10.815v43.262c0 5.9917-4.8237 10.815-10.815 10.815h-43.262c-5.9917 0-10.815-4.8237-10.815-10.815v-43.262c0-5.9917 4.8237-10.815 10.815-10.815z" stroke-width="6.2309"/><path id="path129" d="m44.574 62.241v14.871h-21.631v17.575" stroke-width="6.2309"/><path id="path131" d="m44.574 29.795v17.575h-21.631v14.871" stroke-width="6.2309"/></g></g></svg>
