<?xml version="1.0" encoding="UTF-8"?>
<!-- Created with Inkscape (http://www.inkscape.org/) -->
<svg id="svg2" width="97.904" height="70.471" version="1.1" viewBox="0 0 97.904 70.471" xml:space="preserve" xmlns="http://www.w3.org/2000/svg"><g id="g10" transform="matrix(1.3333 0 0 -1.3333 -194.83 139.71)"><path id="path106991-2-9-2" d="m171.7 68.346-23.16-14.622" fill="none" stroke="#120458" stroke-width=".89009"/><path id="path97820" d="m164.95 73.443 19.841-12.313 19.84 12.313-19.84 12.313zm19.841-13.486-21.729 13.486 21.729 13.485 21.728-13.485-21.728-13.486" fill="#120458" stroke="#120458" stroke-width=".096678"/><path id="path106991-2-9" d="m216.57 94.528-22.801-15.316" fill="none" stroke="#120458" stroke-width=".89009"/><path id="path97822" d="m199.09 77.878-14.295-8.8706v17.742l14.295 8.8706v-17.742" fill="#120458"/><path id="path97824" d="m184.79 86.75-14.295 8.8706 14.295 8.8716 14.295-8.8716-14.295-8.8706" fill="#d9effb"/><path id="path97826" d="m184.79 69.008-14.295 8.8706v17.742l14.295-8.8706v-17.742" fill="#829dc7"/><path id="path73564-6-0-2-2" d="m218.11 92.943c-1.2262-0.76077-3.2143-0.76077-4.4405 0-1.2272 0.76077-1.2272 1.9956 0 2.7556 1.2262 0.76157 3.2143 0.76157 4.4405 0 1.2272-0.75997 1.2272-1.9948 0-2.7556" fill="#120458"/><path id="path73564-6-0-2-2-8" d="m174.13 67.028c-1.2262-0.76077-3.2143-0.76077-4.4405 0-1.2272 0.76077-1.2272 1.9956 0 2.7556 1.2262 0.76157 3.2143 0.76157 4.4405 0 1.2272-0.75996 1.2272-1.9948 0-2.7556" fill="#120458"/><path id="path73564-6-0-2-2-3" d="m151.82 52.842c-1.2262-0.76076-3.2143-0.76076-4.4405 0-1.2272 0.76077-1.2272 1.9956 0 2.7556 1.2262 0.76157 3.2143 0.76157 4.4405 0 1.2272-0.75996 1.2272-1.9948 0-2.7556" fill="#120458" stroke="#120458" stroke-width=".096678"/><g id="g131" transform="matrix(.84567 -.48066 0 -.84567 166.32 99.343)"><g id="g129" transform="matrix(.2644 0 0 .2644 7.2351 6.4596)"><path id="path125" d="m0 0h48v48h-48z" fill="none"/><path id="path127" transform="matrix(3.7822,0,0,3.7822,-27.364,-26.554)" d="m12.125 6.7324c-0.16857 0-0.30701 0.12475-0.33398 0.2832l-0.25195 1.7871c-0.4113 0.17194-0.79338 0.39436-1.1406 0.66406l-1.6777-0.67773c-0.15171-0.057312-0.32783-4.351e-4 -0.41211 0.14453l-1.3496 2.3359c-0.084283 0.14497-0.046079 0.32713 0.082031 0.43164l1.4219 1.1172c-0.026971 0.21576-0.046875 0.43374-0.046875 0.65625s0.019905 0.44244 0.046875 0.6582l-1.4219 1.1152c-0.12811 0.10114-0.16631 0.2833-0.082031 0.43164l1.3496 2.3359c0.084283 0.14497 0.2604 0.20522 0.41211 0.14453l1.6777-0.67578c0.34724 0.26633 0.72932 0.49213 1.1406 0.66406l0.25195 1.7852c0.02697 0.15845 0.16542 0.2832 0.33398 0.2832h2.6973c0.16856 0 0.30701-0.12475 0.33398-0.2832l0.25195-1.7852c0.4113-0.17194 0.79338-0.39436 1.1406-0.66406l1.6777 0.67578c0.15171 0.05731 0.32783 4.35e-4 0.41211-0.14453l1.3477-2.3359c0.08428-0.14497 0.04803-0.32713-0.08008-0.43164l-1.4238-1.1152c0.02697-0.21576 0.04883-0.4357 0.04883-0.6582 0-0.22251-0.02186-0.44049-0.04883-0.65625l1.4258-1.1172c0.12811-0.10114 0.16631-0.2833 0.08203-0.43164l-1.3496-2.3359c-0.08428-0.14497-0.25845-0.20521-0.41016-0.14453l-1.6797 0.67773c-0.34724-0.26633-0.72737-0.49213-1.1387-0.66406l-0.25391-1.7871c-0.03034-0.15845-0.16737-0.2832-0.33594-0.2832h-2.6973zm1.3496 3.5996c0.80714 0 1.6149 0.30634 2.2266 0.91797l-1.0273 1.0273c-0.66803-0.66803-1.7284-0.66803-2.3965 0s-0.66803 1.7284 0 2.3965 1.7284 0.66803 2.3965 0l1.0273 1.0273c-1.2233 1.2233-3.2279 1.2233-4.4512 0s-1.2233-3.2279 0-4.4512c0.61163-0.61163 1.4175-0.91797 2.2246-0.91797z" fill="#1afe49" stroke-width=".2644"/></g></g></g></svg>
