<?xml version="1.0" encoding="UTF-8"?>
<!-- Created with Inkscape (http://www.inkscape.org/) -->
<svg id="svg2" width="97.904" height="70.471" version="1.1" viewBox="0 0 97.904 70.471" xml:space="preserve" xmlns="http://www.w3.org/2000/svg"><g id="g10" transform="matrix(1.3333 0 0 -1.3333 -194.83 139.71)"><path id="path106991-2-9-2" d="m171.7 68.346-23.16-14.622" fill="none" stroke="#120458" stroke-width=".89009"/><path id="path97820" d="m164.95 73.443 19.841-12.313 19.84 12.313-19.84 12.313zm19.841-13.486-21.729 13.486 21.729 13.485 21.728-13.485-21.728-13.486" fill="#120458" stroke="#120458" stroke-width=".096678"/><path id="path106991-2-9" d="m216.57 94.528-22.801-15.316" fill="none" stroke="#120458" stroke-width=".89009"/><path id="path97822" d="m199.09 77.878-14.295-8.8706v17.742l14.295 8.8706v-17.742" fill="#120458"/><path id="path97824" d="m184.79 86.75-14.295 8.8706 14.295 8.8716 14.295-8.8716-14.295-8.8706" fill="#d9effb"/><path id="path97826" d="m184.79 69.008-14.295 8.8706v17.742l14.295-8.8706v-17.742" fill="#829dc7"/><path id="path73564-6-0-2-2" d="m218.11 92.943c-1.2262-0.76077-3.2143-0.76077-4.4405 0-1.2272 0.76077-1.2272 1.9956 0 2.7556 1.2262 0.76157 3.2143 0.76157 4.4405 0 1.2272-0.75997 1.2272-1.9948 0-2.7556" fill="#120458"/><path id="path73564-6-0-2-2-8" d="m174.13 67.028c-1.2262-0.76077-3.2143-0.76077-4.4405 0-1.2272 0.76077-1.2272 1.9956 0 2.7556 1.2262 0.76157 3.2143 0.76157 4.4405 0 1.2272-0.75996 1.2272-1.9948 0-2.7556" fill="#120458"/><path id="path73564-6-0-2-2-3" d="m151.82 52.842c-1.2262-0.76076-3.2143-0.76076-4.4405 0-1.2272 0.76077-1.2272 1.9956 0 2.7556 1.2262 0.76157 3.2143 0.76157 4.4405 0 1.2272-0.75996 1.2272-1.9948 0-2.7556" fill="#120458" stroke="#120458" stroke-width=".096678"/><g id="g2996" transform="matrix(.061866 -.0055247 0 .061866 -81.635 -158.54)"><g id="g3000" transform="matrix(.3034 0 0 .3034 2705.7 2926.1)"><g id="g3004" transform="matrix(.38876 -.2246 0 .38876 3104.6 4083.6)"><g id="g3273" transform="matrix(6.2006 .30785 0 6.2006 1300.4 -6952.3)"><path id="Combined-Shape" d="m517.44 1674.7c0.3036-2.1198 0.51607-4.265 0.51607-6.4658 0-25.044-20.49-45.534-45.534-45.534h-40.475c-25.044 0-45.534 20.49-45.534 45.534 0 22.605 16.711 41.446 38.38 44.906h5e-3l-5e-3 0.01c2.3374 0.3744 4.7153 0.6223 7.1539 0.6223h40.475c22.843 0 41.846-17.065 45.018-39.068z" fill="#1afe49" fill-opacity=".97647"/><path id="Shape" d="m578.1 1776.7c-3.4909 21.639-22.317 38.319-44.901 38.319-22.585 0-41.411-16.68-44.901-38.319 1.9377-1.3964 3.8097-2.9142 5.5501-4.6546l28.621-28.621c5.0138-5.0138 8.5604-10.948 10.731-17.257 3.329-9.6633 3.329-20.217 0-29.88-1.4976-4.3409-3.663-8.4844-6.5012-12.289 2.13-0.3086 4.2903-0.5262 6.5012-0.5262s4.3712 0.2125 6.5012 0.5262c4.7001 0.6831 9.1624 2.0794 13.291 4.093 9.1877 4.4775 16.65 11.94 21.128 21.128 2.9243 6.0003 4.6141 12.699 4.6141 19.792v40.475c0 2.4588-0.25298 4.8569-0.6324 7.2146z" fill="#1afe49" fill-opacity=".90196"/><path id="path11" d="m572.55 1564.5-28.621 28.621c-5.0138 5.0138-8.5604 10.948-10.731 17.257-3.329 9.6633-3.329 20.217 0 29.88 1.4976 4.3409 3.6629 8.4844 6.5012 12.289-2.13 0.3087-4.2903 0.5262-6.5012 0.5262s-4.3712-0.2124-6.5012-0.5262c-4.7001-0.683-9.1624-2.0793-13.291-4.0929-9.1877-4.4775-16.65-11.94-21.128-21.128-2.9243-6.0003-4.6141-12.699-4.6141-19.792v-40.475c0-2.4588 0.25298-4.8569 0.6324-7.2146 3.4909-21.639 22.317-38.319 44.901-38.319s41.411 16.681 44.901 38.319c-1.9377 1.4015-3.8097 2.9193-5.5501 4.6546z" fill="#1afe49" fill-opacity=".7451"/><path id="path13" d="m641.6 1713.2c-1.3964-1.9377-2.9142-3.8097-4.6546-5.5501l-28.621-28.621c-5.0138-5.0138-10.948-8.5553-17.257-10.731-9.6633-3.329-20.217-3.329-29.88 0-4.3409 1.4976-8.4845 3.663-12.289 6.5012-0.30862-2.1299-0.5211-4.2903-0.5211-6.5012s0.21248-4.3712 0.5211-6.5012c0.68303-4.7001 2.0794-9.1624 4.093-13.291 4.4775-9.1878 11.94-16.65 21.128-21.128 6.0004-2.9242 12.699-4.6141 19.792-4.6141h40.475c2.4588 0 4.857 0.253 7.2146 0.6324 21.639 3.491 38.319 22.317 38.319 44.902s-16.681 41.416-38.319 44.902z" fill="#1afe49" fill-opacity=".82353"/><path id="path15" d="m636.95 1772c-15.967 15.967-41.077 17.485-58.845 4.6546 0.37943-2.3577 0.6324-4.7558 0.6324-7.2146v-40.475c0-7.0932-1.6898-13.792-4.6141-19.792-4.4775-9.1878-11.94-16.65-21.128-21.128-4.1284-2.0136-8.5907-3.4099-13.291-4.093 1.2901-1.7252 2.6663-3.4049 4.2296-4.9682s3.243-2.9395 4.9682-4.2296c3.8046-2.8383 7.9482-5.0087 12.289-6.5012 9.6633-3.3291 20.217-3.3291 29.88 0 6.309 2.1755 12.244 5.717 17.257 10.731l28.621 28.621c1.7404 1.7404 3.2582 3.6123 4.6546 5.55 12.836 17.768 11.313 42.873-4.6546 58.845z" fill="#1afe49" fill-opacity=".86275"/><path id="path17" d="m641.6 1623.4c-2.3576-0.3795-4.7558-0.6324-7.2146-0.6324h-40.475c-7.0932 0-13.792 1.6898-19.792 4.6141-9.1877 4.4775-16.65 11.94-21.128 21.128-2.0136 4.1284-3.41 8.5907-4.093 13.291-1.7252-1.2901-3.4049-2.6663-4.9682-4.2296s-2.9395-3.243-4.2296-4.9682c-2.8383-3.8046-5.0087-7.9482-6.5012-12.289-3.329-9.6633-3.329-20.217 0-29.88 2.1755-6.3089 5.717-12.244 10.731-17.257l28.621-28.621c1.7404-1.7404 3.6124-3.2582 5.5501-4.6546 17.768-12.83 42.878-11.313 58.845 4.6546 15.967 15.967 17.49 41.077 4.6546 58.845z" fill="#1afe49" fill-opacity=".78431"/><path id="path19" d="m533.2 1726.1c-2.1755 6.309-5.717 12.244-10.731 17.257l-28.621 28.626c-1.7404 1.7404-3.6124 3.2582-5.5501 4.6546-17.768 12.83-42.878 11.313-58.845-4.6546s-17.485-41.066-4.6596-58.835c2.3374 0.3693 4.7153 0.6172 7.1539 0.6172h40.475c22.843 0 41.846-17.065 45.018-39.068 0.0203 0.015 0.0405 0.025 0.0607 0.04 1.7252 1.2902 3.4049 2.6663 4.9682 4.2296 1.5633 1.5634 2.9395 3.2431 4.2296 4.9683 2.8383 3.8046 5.0087 7.9482 6.5012 12.289 3.329 9.6633 3.329 20.217 0 29.875z" fill="#1afe49" fill-opacity=".94118"/><path id="path21" d="m522.47 1657.5c-1.5633 1.5633-3.243 2.9395-4.9682 4.2296-3.8046 2.8383-7.9482 5.0087-12.289 6.5012-9.6633 3.329-20.217 3.329-29.88 0-6.309-2.1755-12.244-5.717-17.257-10.731l-28.621-28.621c-1.7404-1.7404-3.2582-3.6123-4.6546-5.55-12.83-17.768-11.313-42.878 4.6546-58.845s41.077-17.485 58.845-4.6546c-0.37943 2.3577-0.6324 4.7558-0.6324 7.2146v40.475c0 7.0931 1.6898 13.792 4.6141 19.792 4.4775 9.1878 11.94 16.65 21.128 21.128 4.1284 2.0136 8.5907 3.4099 13.291 4.0929-1.2901 1.7253-2.6663 3.405-4.2296 4.9683z" fill="#1afe49" fill-opacity=".70588"/><path id="Path-6-Copy-2" d="m524.3 1632.9h25.706c24.216 0 43.847 19.262 43.847 43.022s-19.631 43.022-43.847 43.022h-37.102c-13.971 0-25.297-11.112-25.297-24.82v-96.603z" fill="#829dc7"/></g></g></g></g></g></svg>
