<?xml version="1.0" encoding="UTF-8"?>
<!-- Created with Inkscape (http://www.inkscape.org/) -->
<svg id="svg2" width="97.904" height="70.471" version="1.1" viewBox="0 0 97.904 70.471" xml:space="preserve" xmlns="http://www.w3.org/2000/svg"><g id="g10" transform="matrix(1.3333 0 0 -1.3333 -194.83 139.71)"><path id="path106991-2-9-2" d="m171.7 68.346-23.16-14.622" fill="none" stroke="#120458" stroke-width=".89009"/><path id="path97820" d="m164.95 73.443 19.841-12.313 19.84 12.313-19.84 12.313zm19.841-13.486-21.729 13.486 21.729 13.485 21.728-13.485-21.728-13.486" fill="#120458" stroke="#120458" stroke-width=".096678"/><path id="path106991-2-9" d="m216.57 94.528-22.801-15.316" fill="none" stroke="#120458" stroke-width=".89009"/><path id="path97822" d="m199.09 77.878-14.295-8.8706v17.742l14.295 8.8706v-17.742" fill="#120458"/><path id="path97824" d="m184.79 86.75-14.295 8.8706 14.295 8.8716 14.295-8.8716-14.295-8.8706" fill="#d9effb"/><path id="path97826" d="m184.79 69.008-14.295 8.8706v17.742l14.295-8.8706v-17.742" fill="#829dc7"/><path id="path73564-6-0-2-2" d="m218.11 92.943c-1.2262-0.76077-3.2143-0.76077-4.4405 0-1.2272 0.76077-1.2272 1.9956 0 2.7556 1.2262 0.76157 3.2143 0.76157 4.4405 0 1.2272-0.75997 1.2272-1.9948 0-2.7556" fill="#120458"/><path id="path73564-6-0-2-2-8" d="m174.13 67.028c-1.2262-0.76077-3.2143-0.76077-4.4405 0-1.2272 0.76077-1.2272 1.9956 0 2.7556 1.2262 0.76157 3.2143 0.76157 4.4405 0 1.2272-0.75996 1.2272-1.9948 0-2.7556" fill="#120458"/><path id="path73564-6-0-2-2-3" d="m151.82 52.842c-1.2262-0.76076-3.2143-0.76076-4.4405 0-1.2272 0.76077-1.2272 1.9956 0 2.7556 1.2262 0.76157 3.2143 0.76157 4.4405 0 1.2272-0.75996 1.2272-1.9948 0-2.7556" fill="#120458" stroke="#120458" stroke-width=".096678"/><path id="path125" d="m178.83 81.474-2.5365 1.6131v1.2682l2.5365-1.6131m0-3.8046-2.5365 1.6131v1.2682l2.5365-1.6131m3.8046 1.3851-1.7818 1.1332c-0.28534 0.67607-0.67849 1.3509-1.1541 1.9768l1.0336 0.37627-0.8941 1.4627-1.376-0.50093c-0.29168 0.2552-0.58338 0.4788-0.90046 0.68045-0.31705 0.20163-0.60874 0.34914-0.8941 0.4608l-1.3824 2.2551-0.8941-0.3255 1.0272-1.6869c-0.46924-0.02499-0.86239-0.19982-1.1477-0.51298l-1.7818 1.1332v-1.2682l1.3253-0.84282c-0.0317-0.18909-0.057-0.38223-0.057-0.59783v-0.63411l-1.2682 0.80653v-1.2682l1.2682-0.80653v-0.63411c0-0.2156 0.0253-0.44096 0.057-0.67038l-1.3253 0.84282v-1.2682l1.7818-1.1332c0.65947-1.5544 1.8833-3.1 3.291-3.9952 1.4077-0.89524 2.6315-0.90625 3.291-0.19055l1.7818-1.1332v1.2682l-1.3253 0.84282c0.0317 0.18909 0.057 0.38223 0.057 0.59783v0.63411l1.2682-0.80653v1.2682l-1.2682 0.80653v0.63411c0 0.2156-0.0253 0.44095-0.057 0.67038l1.3253-0.84282v1.2682z" fill="#1afe49" stroke-width=".82588"/></g></svg>
